//-----------------------------// 
 Hora: 28-10-2019 09:42:29
ITEMS:
Cafè sol x 4
Cafè tallat x 1
Infusions x 1

Total: 6.2
Nom i Cognoms: NomProva CognomProva
Email: prova@gmail.com
Telefon: 123456789
///-----------------------------///
//-----------------------------// 
 Hora: 28-10-2019 10:08:53
ITEMS:
Cafè sol x 3

Total: 3
Nom i Cognoms: asdf asdf
Email: 
Telefon: asdf
///-----------------------------///
//-----------------------------// 
 Hora: 28-10-2019 10:34:02
ITEMS:

TOTAL: 
Nom i Cognoms:  
Email: 
Telefon: 
///-----------------------------///
//-----------------------------// 
 Hora: 28-10-2019 11:07:15
ITEMS:
Cafè sol x 1
Cafè tallat x 1

TOTAL: 2
Nom i Cognoms: dfgdfg dfgdfg
Email: dfdgdfg
Telefon: 123456789
///-----------------------------///
//-----------------------------// 
 Hora: 28-10-2019 11:16:42
ITEMS:
Cafè sol x 1
Cafè tallat x 1
Cafè amb llet x 1
Infusions x 1

TOTAL: 4.2
Nom i Cognoms: NomProva CognomProva
Email: prova@gmail.com
Telefon: 123456789
///-----------------------------///
//-----------------------------// 
 Hora: 28-10-2019 11:40:51
ITEMS:
Cafè sol x 1
Cafè tallat x 1
Cafè amb llet x 1

TOTAL: 3
Nom i Cognoms: NomProva CognomProva
Email: prova@gmail.com
Telefon: 123456789
///-----------------------------///
//-----------------------------// 
 Hora: 28-10-2019 11:43:48
ITEMS:
Cafè sol x 1
Cafè tallat x 1
Cafè amb llet x 1

TOTAL: 3
Nom i Cognoms: NomProva CognomProva
Email: prova@gmail.com
Telefon: 123456789
///-----------------------------///
//-----------------------------// 
 Hora: 28-10-2019 12:39:00
ITEMS:
Cafè sol x 1
Cafè tallat x 1

TOTAL: 2
Nom i Cognoms: sdf sdf
Email: sdf@gmail.com
Telefon: 
///-----------------------------///
//-----------------------------// 
 Hora: 28-10-2019 12:39:04
ITEMS:
Cafè sol x 1
Cafè tallat x 1

TOTAL: 2
Nom i Cognoms: sdf sdf
Email: sdfsdf
Telefon: 
///-----------------------------///
//-----------------------------// 
 Hora: 28-10-2019 13:07:16
ITEMS:

TOTAL: 0
Nom i Cognoms:  
Email: sdfdsf@gmail.com
Telefon: 
///-----------------------------///
//-----------------------------// 
 Hora: 28-10-2019 13:07:21
ITEMS:

TOTAL: 0
Nom i Cognoms:  
Email: dsfdsf
Telefon: 
///-----------------------------///
//-----------------------------// 
 Hora: 28-10-2019 13:07:25
ITEMS:

TOTAL: 0
Nom i Cognoms:  
Email: dsfdsf
Telefon: 
///-----------------------------///
